{
    "authHost": "https://api.aiocorp.kz",
    "authEndpoint": "/broadcasting/auth",
    "clients": [
        {
            "appId": "ad32d4d7cdafdd6e",
            "key": "3f751379cb2661143fba79298481e184"
        }
    ],
    "database": "redis",
    "databaseConfig": {
        "redis": {},
        "sqlite": {
            "databasePath": "/database/laravel-echo-server.sqlite"
        }
    },
    "devMode": true,
    "host": null,
    "port": "6001",
    "protocol": "https",
    "socketio": {},
    "secureOptions": 67108864,
    "sslCertPath": "/etc/letsencrypt/live/api.aiocorp.kz/fullchain.pem",
    "sslKeyPath": "/etc/letsencrypt/live/api.aiocorp.kz/privkey.pem",
    "sslCertChainPath": "",
    "sslPassphrase": "",
    "subscribers": {
        "http": true,
        "redis": true
    },
    "apiOriginAllow": {
        "allowCors": true,
        "allowOrigin": "*",
        "allowMethods": "GET, POST",
        "allowHeaders": "Origin, Content-Type, X-Auth-Token, X-Requested-With, Accept, Authorization, X-CSRF-TOKEN, X-Socket-Id"
    }
}
